{
  "project_info": {
    "project_number": "92802807906",
    "firebase_url": "https://edify-impact.firebaseio.com",
    "project_id": "edify-impact",
    "storage_bucket": "edify-impact.appspot.com"
  },
  "client": [
    {
      "client_info": {
        "mobilesdk_app_id": "1:92802807906:android:2328dd93c3d8201f",
        "android_client_info": {
          "package_name": "org.edify.impact"
        }
      },
      "oauth_client": [
        {
          "client_id": "92802807906-581jhfq5u5lb99atti99ta3olq1erm2j.apps.googleusercontent.com",
          "client_type": 3
        }
      ],
      "api_key": [
        {
          "current_key": "AIzaSyAbmK89D5AyZHMj-gTDQ1Iddkez0pFczsA"
        }
      ],
      "services": {
        "appinvite_service": {
          "other_platform_oauth_client": [
            {
              "client_id": "92802807906-581jhfq5u5lb99atti99ta3olq1erm2j.apps.googleusercontent.com",
              "client_type": 3
            }
          ]
        }
      }
    }
  ],
  "configuration_version": "1"
}